{
  "species": "cobblemon:ledian",
  "order": 0,
  "variations": [
    {
      "aspects": [],
      "poser": "cobblemon:ledian",
      "model": "cobblemon:ledian_male.geo",
      "texture": "cobblemon:textures/pokemon/0166_ledian/ledian.png",
      "layers": []
    },
    {
      "aspects": [
        "shiny"
      ],
      "texture": "cobblemon:textures/pokemon/0166_ledian/ledian_shiny.png"
    }
  ]
}