{
    "species": "cobblemon:sunflora",
    "order": 0,
    "variations": [
      {
        "aspects": [],
        "poser": "cobblemon:sunflora",
        "model": "cobblemon:sunflora.geo",
        "texture": "cobblemon:textures/pokemon/0192_sunflora/sunflora.png",
        "layers": []
      },
      {
        "aspects": [
          "shiny"
        ],
        "texture": "cobblemon:textures/pokemon/0192_sunflora/sunflora_shiny.png"
      }
    ]
  }