{
    "type": "minecraft:crafting_shaped",
    "pattern": [
        "CAI",
        "CII",
        "I  "
    ],
    "key": {
        "I": {
            "item": "minecraft:iron_ingot"
        },
        "C": {
            "item": "minecraft:copper_ingot"
        },
        "A": {
            "item": "minecraft:amethyst_shard"
        }
    },
    "result": {
        "item": "cobblemon:wide_lens"
    }
}
